{
  "page": 1,
  "total_results": 10000,
  "total_pages": 500,
  "results": [
    {
      "popularity": 376.331,
      "vote_count": 2202,
      "video": false,
      "poster_path": "/dcbPgUymJt6tbUbs7U6L2Jc0wXD.jpg",
      "id": 419704,
      "adult": false,
      "backdrop_path": "/5BwqwxMEjeFtdknRV792Svo0K1v.jpg",
      "original_language": "en",
      "original_title": "Ad Astra",
      "genre_ids": [
        12,
        18,
        9648,
        878,
        53
      ],
      "title": "К звёздам",
      "vote_average": 6,
      "overview": "Инженер армейского корпуса путешествует по Галактике в поисках отца, который отправился на поиски внеземной цивилизации 20 лет назад и исчез.",
      "release_date": "2019-09-17"
    },
    {
      "popularity": 231.19,
      "vote_count": 1937,
      "video": false,
      "poster_path": "/9PtIdTW2geKXQbOG17dKLe1JWu4.jpg",
      "id": 530915,
      "adult": false,
      "backdrop_path": "/2WgieNR1tGHlpJUsolbVzbUbE1O.jpg",
      "original_language": "en",
      "original_title": "1917",
      "genre_ids": [
        28,
        18,
        10752
      ],
      "title": "1917",
      "vote_average": 8.1,
      "overview": "1917 год, разгар Первой мировой войны. Двум юным молодым солдатам поручают смертельно опасную миссию. Они должны пересечь вражескую территорию и доставить секретное сообщение, которое предотвратит неминуемую гибель сотен солдат… Смогут ли они выиграть гонку со временем?",
      "release_date": "2019-12-10"
    },
    {
      "popularity": 182.125,
      "vote_count": 569,
      "video": false,
      "poster_path": "/7vyOB2wWvyild4ETMrW7EZOaWZx.jpg",
      "id": 38700,
      "adult": false,
      "backdrop_path": "/upUy2QhMZEmtypPW3PdieKLAHxh.jpg",
      "original_language": "en",
      "original_title": "Bad Boys for Life",
      "genre_ids": [
        28,
        80,
        53
      ],
      "title": "Плохие парни навсегда",
      "vote_average": 6.5,
      "overview": "Бёрнетт рассорился с напарником, оставил службу в полиции Майами и занялся частной сыскной деятельностью. Лоури тем временем переживает кризис среднего возраста и подумывает завязать с холостяцким образом жизни. Параллельно ему приходится разбираться с новым наглым партнёром. «Плохим парням» приходится вновь объединиться, когда за ними начинает охоту албанский наёмник, желающий отомстить за смерть своего брата. Чтобы выжить, бывшие напарники должны забыть о старых обидах.",
      "release_date": "2020-01-15"
    },
    {
      "popularity": 138.533,
      "vote_count": 8667,
      "video": false,
      "poster_path": "/498AdCguRoD1mpizIeKi8nDTOQO.jpg",
      "id": 475557,
      "adult": false,
      "backdrop_path": "/n6bUvigpRFqSwmPp1m2YADdbRBc.jpg",
      "original_language": "en",
      "original_title": "Joker",
      "genre_ids": [
        80,
        18,
        53
      ],
      "title": "Джокер",
      "vote_average": 8.3,
      "overview": "Готэм, начало 1980-х годов. Комик Артур Флек живет с больной матерью, которая с детства учит его «ходить с улыбкой». Пытаясь нести в мир хорошее и дарить людям радость, Артур сталкивается с человеческой жестокостью и постепенно приходит к выводу, что этот мир получит от него не добрую улыбку, а ухмылку злодея Джокера.",
      "release_date": "2019-10-02"
    },
    {
      "popularity": 163.151,
      "vote_count": 1216,
      "video": false,
      "poster_path": "/a3xUGMB8F9s98fGXOpBKlIg0ikm.jpg",
      "id": 359724,
      "adult": false,
      "backdrop_path": "/n3UanIvmnBlH531pykuzNs4LbH6.jpg",
      "original_language": "en",
      "original_title": "Ford v Ferrari",
      "genre_ids": [
        28,
        18
      ],
      "title": "Ford против Ferrari",
      "vote_average": 7.8,
      "overview": "Сюжет повествует о группе американских инженеров и дизайнеров. В 1960-х под руководством конструктора Кэрролла Шелби и при поддержке британского гонщика Кена Майлса они должны были с нуля сделать абсолютно новый спорткар, способный опередить Феррари — непобедимого чемпиона 24-часовой гонки на выносливость Ле-Ман.",
      "release_date": "2019-11-13"
    },
    {
      "popularity": 157.878,
      "id": 495764,
      "video": false,
      "vote_count": 22,
      "vote_average": 8.2,
      "title": "Хищные птицы: Потрясающая история Харли Квинн",
      "release_date": "2020-02-05",
      "original_language": "en",
      "original_title": "Birds of Prey (and the Fantabulous Emancipation of One Harley Quinn)",
      "genre_ids": [
        28,
        80,
        12
      ],
      "backdrop_path": "/jiqD14fg7UTZOT6qgvzTmfRYpWI.jpg",
      "adult": false,
      "overview": "В центре сюжета окажется Харли Куинн, которая расстаётся со своим возлюбленным Джокером и собирает собственную команду опасных супергероинь. В их числе Бэтгёрл, Чёрная канарейка, Охотница и Рене Монтойя. Дерзким девушкам предстоит вступить в схватку с Чёрной Маской, который является криминальным авторитетом Готэма.",
      "poster_path": "/wh5FEKiNeirvD02T2Ui22duZGCZ.jpg"
    }
  ]
}
