{"page":1,"total_results":10000,"total_pages":500,"results":[{"popularity":376.331,"vote_count":2202,"video":false,"poster_path":"\/dcbPgUymJt6tbUbs7U6L2Jc0wXD.jpg","id":419704,"adult":false,"backdrop_path":"\/5BwqwxMEjeFtdknRV792Svo0K1v.jpg","original_language":"en","original_title":"Ad Astra","genre_ids":[12,18,9648,878,53],"title":"К звёздам","vote_average":6,"overview":"Инженер армейского корпуса путешествует по Галактике в поисках отца, который отправился на поиски внеземной цивилизации 20 лет назад и исчез.","release_date":"2019-09-17"},{"popularity":231.19,"vote_count":1937,"video":false,"poster_path":"\/9PtIdTW2geKXQbOG17dKLe1JWu4.jpg","id":530915,"adult":false,"backdrop_path":"\/2WgieNR1tGHlpJUsolbVzbUbE1O.jpg","original_language":"en","original_title":"1917","genre_ids":[28,18,10752],"title":"1917","vote_average":8.1,"overview":"1917 год, разгар Первой мировой войны. Двум юным молодым солдатам поручают смертельно опасную миссию. Они должны пересечь вражескую территорию и доставить секретное сообщение, которое предотвратит неминуемую гибель сотен солдат… Смогут ли они выиграть гонку со временем?","release_date":"2019-12-10"},{"popularity":182.125,"vote_count":569,"video":false,"poster_path":"\/7vyOB2wWvyild4ETMrW7EZOaWZx.jpg","id":38700,"adult":false,"backdrop_path":"\/upUy2QhMZEmtypPW3PdieKLAHxh.jpg","original_language":"en","original_title":"Bad Boys for Life","genre_ids":[28,80,53],"title":"Плохие парни навсегда","vote_average":6.5,"overview":"Бёрнетт рассорился с напарником, оставил службу в полиции Майами и занялся частной сыскной деятельностью. Лоури тем временем переживает кризис среднего возраста и подумывает завязать с холостяцким образом жизни. Параллельно ему приходится разбираться с новым наглым партнёром. «Плохим парням» приходится вновь объединиться, когда за ними начинает охоту албанский наёмник, желающий отомстить за смерть своего брата. Чтобы выжить, бывшие напарники должны забыть о старых обидах.","release_date":"2020-01-15"},{"popularity":138.533,"vote_count":8667,"video":false,"poster_path":"\/498AdCguRoD1mpizIeKi8nDTOQO.jpg","id":475557,"adult":false,"backdrop_path":"\/n6bUvigpRFqSwmPp1m2YADdbRBc.jpg","original_language":"en","original_title":"Joker","genre_ids":[80,18,53],"title":"Джокер","vote_average":8.3,"overview":"Готэм, начало 1980-х годов. Комик Артур Флек живет с больной матерью, которая с детства учит его «ходить с улыбкой». Пытаясь нести в мир хорошее и дарить людям радость, Артур сталкивается с человеческой жестокостью и постепенно приходит к выводу, что этот мир получит от него не добрую улыбку, а ухмылку злодея Джокера.","release_date":"2019-10-02"},{"popularity":163.151,"vote_count":1216,"video":false,"poster_path":"\/a3xUGMB8F9s98fGXOpBKlIg0ikm.jpg","id":359724,"adult":false,"backdrop_path":"\/n3UanIvmnBlH531pykuzNs4LbH6.jpg","original_language":"en","original_title":"Ford v Ferrari","genre_ids":[28,18],"title":"Ford против Ferrari","vote_average":7.8,"overview":"Сюжет повествует о группе американских инженеров и дизайнеров. В 1960-х под руководством конструктора Кэрролла Шелби и при поддержке британского гонщика Кена Майлса они должны были с нуля сделать абсолютно новый спорткар, способный опередить Феррари — непобедимого чемпиона 24-часовой гонки на выносливость Ле-Ман.","release_date":"2019-11-13"},{"popularity":157.878,"id":495764,"video":false,"vote_count":22,"vote_average":8.2,"title":"Хищные птицы: Потрясающая история Харли Квинн","release_date":"2020-02-05","original_language":"en","original_title":"Birds of Prey (and the Fantabulous Emancipation of One Harley Quinn)","genre_ids":[28,80,12],"backdrop_path":"\/jiqD14fg7UTZOT6qgvzTmfRYpWI.jpg","adult":false,"overview":"В центре сюжета окажется Харли Куинн, которая расстаётся со своим возлюбленным Джокером и собирает собственную команду опасных супергероинь. В их числе Бэтгёрл, Чёрная канарейка, Охотница и Рене Монтойя. Дерзким девушкам предстоит вступить в схватку с Чёрной Маской, который является криминальным авторитетом Готэма.","poster_path":"\/wh5FEKiNeirvD02T2Ui22duZGCZ.jpg"},{"popularity":111.844,"id":290859,"video":false,"vote_count":1286,"vote_average":6.2,"title":"Терминатор: Тёмные судьбы","release_date":"2019-10-23","original_language":"en","original_title":"Terminator: Dark Fate","genre_ids":[28,878],"backdrop_path":"\/riTANvQ8GKmQbgtC1ps3OfkU43A.jpg","adult":false,"overview":"Сара Коннор превратилась в настоящую охотницу за терминаторами и теперь занимается уничтожением роботов-убийц из будущего. Она считала, что главное — это не дать им добраться до Джона, но теперь появилась Дани Рамос, от выживания которой также зависит судьба человечества. Вместе с ней в бой вступает и загадочная Грейс, смесь человека и машины.","poster_path":"\/d2lVpxBRboVPL49n6fsUAWX8aUc.jpg"},{"popularity":109.264,"vote_count":228,"video":false,"poster_path":"\/qKnRd76yKfggX6d70luzdCvzRyZ.jpg","id":449924,"adult":false,"backdrop_path":"\/ekP6EVxL81lZ4ivcqPsoZ72rY0h.jpg","original_language":"cn","original_title":"葉問4","genre_ids":[28,18,36],"title":"Ип Ман 4","vote_average":6,"overview":"Америка, 70-е годы. Иммигрант из Гонконга открывает школу кунг-фу и распространяет самоучители по боевым искусствам, чтобы подзаработать на успехе фильма Брюса Ли «Выход Дракона». Это приводит к тому, что он становится объектом мести озлобленного владельца оружейного магазина, сын которого, начитавшийся тех самых самоучителей и уверенный, что знает кунг-фу, был убит в затеянной им схватке с несколькими бандитами.  Осознав всю опасность нависшей над ним угрозы со стороны мстительного отца и его дружков-негодяев, среди которых есть те, кто владеет боевыми искусствами, мастер кунг-фу должен использовать все свои бойцовские навыки, чтобы защитить себя не только от вражеских кулаков, но и от огнестрельного оружия.","release_date":"2019-12-20"},{"popularity":73.37,"vote_count":900,"video":false,"poster_path":"\/yg0J8HxfMRPSqanWOEzaNr7WHaZ.jpg","id":501170,"adult":false,"backdrop_path":"\/1nm0sk8UUx9jHCTHuMKe2jkt4Pn.jpg","original_language":"en","original_title":"Doctor Sleep","genre_ids":[18,14,27],"title":"Доктор Сон","vote_average":7.1,"overview":"Прошло много лет с тех пор, как мальчик-ясновидец Дэнни Торранс пережил кошмарный сезон в отеле «Оверлук», где стал свидетелем безумия и гибели своего отца. Повзрослев, но не оправившись от детской травмы, Дэнни ведёт жизнь маргинала-алкоголика. С ним устанавливает связь другая «сияющая» девочка, Абра. Ей потребуется помощь Дэнни, чтобы не стать жертвой так называемого «Истинного Узла» — группы охотников за одарёнными детьми.","release_date":"2019-10-30"},{"popularity":97.482,"vote_count":3103,"video":false,"poster_path":"\/mSN0DRhFhHNoBZBdhH6N0bx4DfC.jpg","id":496243,"adult":false,"backdrop_path":"\/TU9NIjwzjoKPwQHoHshkFcQUCG.jpg","original_language":"ko","original_title":"기생충","genre_ids":[35,18,53],"title":"Паразиты","vote_average":8.6,"overview":"Обычное корейское семейство жизнь не балует. Приходится жить в сыром грязном полуподвале, воровать интернет у соседей и перебиваться случайными подработками. Однажды друг сына семейства, уезжая на стажировку за границу, предлагает тому заменить его и поработать репетитором у старшеклассницы в богатой семье Пак. Подделав диплом о высшем образовании, парень отправляется в шикарный дизайнерский особняк и производит на хозяйку дома хорошее впечатление. Тут же ему в голову приходит необычный план по трудоустройству сестры.","release_date":"2019-05-30"},{"popularity":81.248,"vote_count":94,"video":false,"poster_path":"\/yrnq6omfIkh9tMkwrzzFBLTQzhz.jpg","id":486589,"adult":false,"backdrop_path":"\/bga3i5jcejBekr2FCGJga1fYCh.jpg","original_language":"en","original_title":"Red Shoes and the Seven Dwarfs","genre_ids":[16,10749],"title":"Красные туфельки и семь гномов","vote_average":6.3,"overview":"Анимационный фильм рассказывает о семи самовлюбленных принцах-красавцах, на которых было наложено заклятие, превратившее их в семерых уродливых гномов. Чтобы снять проклятье, они должны разыскать пару магических красных туфелек, которые носит одна девушка. Туфли помогают девушке выглядеть стройнее, чем она есть на самом деле.","release_date":"2019-07-25"},{"popularity":134.805,"vote_count":543,"video":false,"poster_path":"\/7gOozJufKJ9WjcIs38KEs08Iq3D.jpg","id":473033,"adult":false,"backdrop_path":"\/uzvT6tYrU5SxfHe1ieimIGAqyFm.jpg","original_language":"en","original_title":"Uncut Gems","genre_ids":[80,18,53],"title":"Неогранённые драгоценности","vote_average":7.5,"overview":"В центре сюжета Говард Ратнер — владелец ювелирного магазина в Нью-Йорке и дилер для богатых и знаменитых. Однажды он попадает в серьезные неприятности. Пока не стало поздно, он должен предпринять жесткие меры.","release_date":"2019-11-14"},{"popularity":71.063,"vote_count":4411,"video":false,"poster_path":"\/ou08YGqxeESeHQ3Lmdj3ZfaSX3k.jpg","id":466272,"adult":false,"backdrop_path":"\/yB2hTgz9CTVYjlMWPSl3LPx5nWj.jpg","original_language":"en","original_title":"Once Upon a Time… in Hollywood","genre_ids":[35,18,53],"title":"Однажды в… Голливуде","vote_average":7.5,"overview":"В прошлом актер вестернов и его дублер стараются достичь славы в Голливуде. Их поиски успеха происходят на фоне печальных событий, связанных с небезызвестным Чарльзом Мэнсоном.","release_date":"2019-07-25"},{"popularity":72.765,"vote_count":2808,"video":false,"poster_path":"\/n4qDnoKFVPGay0v5HfT5ybPtV8h.jpg","id":181812,"adult":false,"backdrop_path":"\/jOzrELAzFxtMx2I4uDGHOotdfsS.jpg","original_language":"en","original_title":"Star Wars: The Rise of Skywalker","genre_ids":[28,12,878],"title":"Звёздные войны: Скайуокер. Восход","vote_average":6.5,"overview":"Фильм завершает невероятную историю семьи Скайуокеров, длящуюся уже более сорока лет, и обещает дать ответы на все загадки из предыдущих серий. Зрителя ожидают старые и новые герои, уникальные миры, увлекательные путешествия на край Галактики и грандиозный финал фантастической саги.","release_date":"2019-12-18"},{"popularity":126.896,"vote_count":1207,"video":false,"poster_path":"\/cXJLP7ArBs9AKliXMDYaFTg4YNf.jpg","id":515001,"adult":false,"backdrop_path":"\/agoBZfL1q5G79SD0npArSlJn8BH.jpg","original_language":"en","original_title":"Jojo Rabbit","genre_ids":[35,18,10752],"title":"Кролик Джоджо","vote_average":8.2,"overview":"Неловкий и нескладный 10-летний немецкий мальчик, потерявший отца, пытается найти своё место в непривычном мире. Ровесники лишь потешаются над ним, а мама считает, что ребёнок сам придумывает себе проблемы. В надежде получить замену пропавшего отца мальчик придумывает себе воображаемого друга — Адольфа Гитлера, который совсем не похож на знакомого всем фюрера Третьего рейха. Ситуация только осложняется, когда мальчик обнаруживает, что его мать прячет в доме еврейскую девочку.","release_date":"2019-10-18"},{"popularity":73.958,"vote_count":2096,"video":false,"poster_path":"\/p4XurAYUUxsJgHEnGsPSqNMskYr.jpg","id":330457,"adult":false,"backdrop_path":"\/xJWPZIYOEFIjZpBL7SVBGnzRYXp.jpg","original_language":"en","original_title":"Frozen II","genre_ids":[12,16,10402,10751],"title":"Холодное сердце 2","vote_average":7,"overview":"Анна, Эльза, Кристоф, его верный олень Свен и никогда не унывающий снеговик Олаф должны будут покинуть уютное королевство Эренделл и отправиться ещё дальше на север, в путешествие, которое приведет их к истокам древних легенд и поможет раскрыть тайны, касающиеся прошлого их родной страны.","release_date":"2019-11-20"},{"popularity":76.084,"vote_count":1696,"video":false,"poster_path":"\/7hq56ZgSnDRMJSCroAml17EmGmI.jpg","id":420809,"adult":false,"backdrop_path":"\/skvI4rYFrKXS73BJxWGH54Omlvv.jpg","original_language":"en","original_title":"Maleficent: Mistress of Evil","genre_ids":[12,14,10751],"title":"Малефисента: Владычица тьмы","vote_average":7.2,"overview":"Действие происходит через несколько лет после того, как Малефисента наложила злые чары на принцессу Аврору. Фильм рассказывает про сложную взаимосвязь между тёмной феей и будущей королевой, о новых союзниках и противниках в деле защиты волшебного леса и магических существах, которые в нем обитают.","release_date":"2019-10-16"},{"popularity":55.935,"vote_count":8651,"video":false,"poster_path":"\/p6f6diLLGR27j1glPrsP49hO5H8.jpg","id":920,"adult":false,"backdrop_path":"\/a1MlbLBk5Sy6YvMbSuKfwGlDVlb.jpg","original_language":"en","original_title":"Cars","genre_ids":[12,16,35,10751],"title":"Тачки","vote_average":6.7,"overview":"Неукротимый в своем желании всегда и во всем побеждать гоночный автомобиль Молния Маккуин вдруг обнаруживает, что сбился с пути и застрял в маленьком захолустном городке Радиатор-Спрингс, что находится где-то на трассе 66 в Калифорнии. Участвуя в гонках на Кубок Поршня, где ему противостояли два очень опытных соперника, Маккуин совершенно не ожидал, что отныне ему придется общаться с персонажами совсем иного рода...","release_date":"2006-06-08"},{"popularity":50.382,"vote_count":1171,"video":false,"poster_path":"\/b9LPLeuWWt1jf196Tv4OrwDHhCa.jpg","id":522938,"adult":false,"backdrop_path":"\/hl9wGMntYNl4dEYtjgU600GZ8JH.jpg","original_language":"en","original_title":"Rambo: Last Blood","genre_ids":[28,18,53],"title":"Рэмбо: Последняя кровь","vote_average":5.9,"overview":"Он хранил секреты всю жизнь, но пришло время взглянуть в глаза прошлому. В последний раз собраться и стать безжалостной машиной для убийства. Рэмбо снова встанет на смертельно опасный путь — путь мести, который ему придется пройти до конца.","release_date":"2019-09-19"},{"popularity":61.744,"id":331482,"video":false,"vote_count":913,"vote_average":8,"title":"Маленькие женщины","release_date":"2019-12-25","original_language":"en","original_title":"Little Women","genre_ids":[18,10749],"backdrop_path":"\/3uTxPIdVEXxHpsHOHdJC24QebBV.jpg","adult":false,"overview":"Фильм рассказывает о взрослении четырех непохожих друг на друга сестер. Действие разворачивается во времена Гражданской войны в США, но проблемы, с которыми сталкиваются девушки, актуальны как никогда: первая любовь, горькое разочарование, томительная разлука и непростые поиски себя и своего места в жизни.","poster_path":"\/1FResJt4Za1wpWICf9CGXN2LCI9.jpg"}]}
